life history@id=life history
life stage@id=development stage
development stage@id=development stage
stage of development@id=development stage
development@id=development
development stage@id=development
mortality@id=mortality
development@id=development
survival@id=mortality
reproduction@id=reproduction
hatching success@id=reproduction
emergence@id=emergence
pupation success@id=development
growth@id=growth
length@id=body size
weight@id=body size
mass@id=body size
total no young@id=reproduction
fecundity@id=reproduction
